<?xml version="1.0" encoding="utf-8"?>
<!-- Generator: Adobe Illustrator 16.0.4, SVG Export Plug-In . SVG Version: 6.00 Build 0)  -->
<!DOCTYPE svg PUBLIC "-//W3C//DTD SVG 1.1//EN" "http://www.w3.org/Graphics/SVG/1.1/DTD/svg11.dtd">
<svg version="1.1" id="Layer_1" xmlns="http://www.w3.org/2000/svg" xmlns:xlink="http://www.w3.org/1999/xlink" x="0px" y="0px"
	 width="117.208px" height="30px" viewBox="0 0 117.208 30" enable-background="new 0 0 117.208 30" xml:space="preserve">
<g>
	<path fill="#EEEDE9" d="M45.975,9.252c-0.485-0.327-1.139-0.564-1.998-0.724c-0.009-0.001-0.025-0.003-0.04-0.003
		c-0.667-0.129-1.167-0.304-1.482-0.521c-0.306-0.209-0.434-0.413-0.442-0.692c0-0.295,0.171-0.585,0.478-0.813
		c0.356-0.254,0.857-0.399,1.375-0.399c0.765,0,1.372,0.397,1.9,0.743c0.11,0.077,0.249,0.105,0.381,0.077
		c0.13-0.027,0.244-0.108,0.308-0.214c0.148-0.232,0.09-0.526-0.142-0.688c-0.584-0.383-1.386-0.907-2.448-0.907
		c-0.735,0-1.43,0.211-1.957,0.594c-0.572,0.416-0.886,0.987-0.886,1.609c0,0.608,0.315,1.147,0.883,1.518
		c0.449,0.303,1.057,0.522,1.859,0.67c0.009,0.001,0.025,0.002,0.04,0.003c0.699,0.135,1.257,0.331,1.611,0.563
		c0.347,0.237,0.495,0.479,0.495,0.81c0,0.333-0.189,0.652-0.535,0.9c-0.386,0.284-0.938,0.44-1.519,0.44
		c-1.061,0-1.998-0.689-2.252-0.895c-0.099-0.088-0.233-0.132-0.363-0.121c-0.136,0.012-0.257,0.077-0.344,0.185
		c0,0.001-0.001,0.002-0.002,0.002c-0.159,0.205-0.13,0.512,0.076,0.695c0.528,0.418,1.608,1.123,2.916,1.134
		c0.771,0,1.507-0.226,2.074-0.636c0.604-0.437,0.951-1.059,0.951-1.705C46.911,10.232,46.569,9.639,45.975,9.252"/>
	<path fill="#EEEDE9" d="M50.66,13.208c0.291,0,0.527-0.231,0.527-0.517V9.728h4.475v2.963c0,0.285,0.232,0.517,0.517,0.517
		c0.291,0,0.527-0.231,0.527-0.517V5.732c0-0.285-0.236-0.516-0.527-0.516c-0.285,0-0.517,0.231-0.517,0.516v2.963h-4.475V5.732
		c0-0.285-0.237-0.516-0.527-0.516c-0.285,0-0.516,0.231-0.516,0.516v6.959C50.144,12.977,50.375,13.208,50.66,13.208"/>
	<path fill="#EEEDE9" d="M45.975,22.059c-0.485-0.327-1.139-0.564-1.998-0.724c-0.009-0.002-0.025-0.003-0.04-0.004
		c-0.667-0.129-1.167-0.304-1.482-0.521c-0.306-0.21-0.434-0.413-0.442-0.692c0-0.296,0.171-0.585,0.478-0.813
		c0.356-0.254,0.857-0.4,1.375-0.4c0.765,0,1.372,0.397,1.9,0.744c0.11,0.076,0.249,0.104,0.381,0.076
		c0.13-0.027,0.244-0.108,0.308-0.215c0.148-0.232,0.09-0.526-0.142-0.688c-0.584-0.382-1.386-0.906-2.448-0.906
		c-0.735,0-1.43,0.211-1.957,0.594c-0.572,0.416-0.886,0.987-0.886,1.609c0,0.607,0.315,1.147,0.883,1.518
		c0.449,0.303,1.057,0.521,1.859,0.67c0.009,0.002,0.025,0.003,0.04,0.003c0.699,0.136,1.257,0.331,1.611,0.564
		c0.347,0.237,0.495,0.479,0.495,0.81c0,0.334-0.189,0.652-0.535,0.9c-0.38,0.28-0.922,0.44-1.492,0.44
		c-1.076,0.003-2.023-0.688-2.279-0.895c-0.099-0.088-0.233-0.131-0.363-0.121c-0.136,0.012-0.257,0.077-0.344,0.185
		c0,0.001-0.001,0.002-0.002,0.003c-0.159,0.205-0.13,0.512,0.076,0.694c0.528,0.419,1.608,1.123,2.916,1.135
		c0.771,0,1.507-0.226,2.074-0.637c0.604-0.437,0.951-1.059,0.951-1.705C46.911,23.04,46.569,22.446,45.975,22.059"/>
	<path fill="#EEEDE9" d="M53.438,17.916c-2.157,0-3.856,1.778-3.868,4.051c0.012,2.27,1.71,4.048,3.868,4.048
		c2.14,0,3.825-1.778,3.836-4.051C57.263,19.694,55.578,17.916,53.438,17.916 M53.438,24.971c-1.557,0-2.824-1.349-2.824-3.006
		c0-1.681,1.241-2.996,2.824-2.996c1.524,0,2.772,1.345,2.782,2.994C56.21,23.622,54.962,24.971,53.438,24.971"/>
	<path fill="#EEEDE9" d="M64.878,24.971h-3.315v-6.433c0-0.285-0.236-0.517-0.527-0.517c-0.284,0-0.516,0.231-0.516,0.517v6.959
		c0,0.285,0.231,0.517,0.516,0.517h3.843c0.291,0,0.527-0.231,0.527-0.517C65.406,25.203,65.174,24.971,64.878,24.971"/>
	<path fill="#EEEDE9" d="M73.96,18.022c-0.284,0-0.517,0.231-0.517,0.517v4.195c0,1.224-1.009,2.228-2.245,2.237
		c-1.229-0.01-2.229-1.014-2.229-2.237v-4.195c0-0.285-0.236-0.517-0.526-0.517c-0.285,0-0.518,0.231-0.518,0.517v4.195
		c0,1.809,1.468,3.28,3.271,3.28c1.815,0,3.292-1.472,3.292-3.28v-4.195C74.488,18.253,74.251,18.022,73.96,18.022"/>
	<path fill="#EEEDE9" d="M82.84,18.022h-5.017c-0.285,0-0.517,0.231-0.517,0.517c0,0.291,0.231,0.527,0.517,0.527h1.991v6.432
		c0,0.285,0.232,0.517,0.517,0.517c0.285,0,0.517-0.231,0.517-0.517v-6.432h1.992c0.284,0,0.517-0.236,0.517-0.527
		C83.357,18.253,83.125,18.022,82.84,18.022"/>
	<path fill="#EEEDE9" d="M86.991,18.022c-0.285,0-0.517,0.231-0.517,0.517v6.959c0,0.285,0.231,0.517,0.517,0.517
		c0.29,0,0.527-0.231,0.527-0.517v-6.959C87.518,18.253,87.281,18.022,86.991,18.022"/>
	<path fill="#EEEDE9" d="M94.792,17.916c-2.157,0-3.856,1.778-3.868,4.051c0.012,2.27,1.711,4.048,3.868,4.048
		c2.14,0,3.824-1.778,3.836-4.051C98.617,19.694,96.932,17.916,94.792,17.916 M94.792,24.971c-1.558,0-2.825-1.349-2.825-3.006
		c0-1.681,1.241-2.996,2.825-2.996c1.524,0,2.772,1.345,2.781,2.994C97.565,23.622,96.316,24.971,94.792,24.971"/>
	<path fill="#EEEDE9" d="M107.183,18.097c-0.285,0-0.517,0.231-0.517,0.516v5.279l-4.046-5.61c-0.069-0.109-0.181-0.187-0.312-0.216
		c-0.142-0.031-0.29-0.005-0.431,0.085c-0.166,0.13-0.239,0.328-0.196,0.526v6.82c0,0.285,0.231,0.517,0.516,0.517
		c0.285,0,0.517-0.231,0.517-0.517v-5.309l4.005,5.568c0.026,0.044,0.059,0.072,0.08,0.09c0.102,0.109,0.233,0.167,0.384,0.167
		c0.29,0,0.527-0.231,0.527-0.517v-6.885C107.71,18.329,107.473,18.097,107.183,18.097"/>
	<path fill="#EEEDE9" d="M116.271,22.059c-0.485-0.327-1.139-0.564-1.998-0.724c-0.009-0.002-0.024-0.003-0.04-0.004
		c-0.667-0.129-1.166-0.304-1.482-0.521c-0.306-0.21-0.435-0.412-0.442-0.692c0-0.296,0.172-0.585,0.479-0.813
		c0.355-0.254,0.857-0.4,1.375-0.4c0.766,0,1.372,0.397,1.9,0.744c0.11,0.077,0.25,0.104,0.382,0.076
		c0.13-0.027,0.243-0.108,0.308-0.215c0.147-0.232,0.09-0.526-0.142-0.688c-0.585-0.382-1.386-0.906-2.448-0.906
		c-0.735,0-1.43,0.211-1.957,0.594c-0.571,0.416-0.886,0.987-0.886,1.609c0,0.607,0.314,1.147,0.883,1.518
		c0.448,0.303,1.057,0.521,1.859,0.67c0.009,0.002,0.025,0.003,0.04,0.003c0.699,0.136,1.257,0.331,1.61,0.564
		c0.348,0.237,0.496,0.479,0.496,0.81c0,0.333-0.189,0.652-0.535,0.9c-0.38,0.28-0.922,0.44-1.492,0.44c-0.009,0-0.018,0-0.027,0
		c-1.061,0-1.998-0.689-2.252-0.895c-0.099-0.088-0.229-0.133-0.363-0.121c-0.136,0.012-0.258,0.077-0.344,0.185
		c-0.001,0.002-0.001,0.002-0.002,0.003c-0.159,0.205-0.131,0.513,0.076,0.694c0.527,0.419,1.606,1.123,2.915,1.135
		c0.77,0,1.507-0.226,2.074-0.637c0.604-0.437,0.95-1.059,0.95-1.705C117.208,23.04,116.865,22.446,116.271,22.059"/>
	<path fill="#EEEDE9" d="M22.919,0c-0.431,0-0.78,0.35-0.78,0.781s0.35,0.781,0.781,0.781c3.043,0,5.519,2.477,5.519,5.52v9.796
		c-1.299-1.616-3.29-2.653-5.52-2.653H7.081c-3.039,0-5.511-2.469-5.519-5.506V7.081c0-3.043,2.476-5.52,5.52-5.52h0.004v0
		c0.429-0.003,0.776-0.351,0.776-0.78C7.861,0.35,7.512,0,7.081,0C3.176,0,0,3.177,0,7.081v15.838c0,1.892,0.736,3.669,2.074,5.007
		C3.411,29.263,5.189,30,7.081,30h0.001h0.003l0,0c0.429-0.002,0.777-0.351,0.776-0.78c0-0.431-0.349-0.78-0.78-0.78
		c-1.475,0-2.86-0.574-3.903-1.617c-1.042-1.042-1.617-2.429-1.617-3.902v-9.786c1.299,1.615,3.29,2.652,5.519,2.652h15.838
		c3.043,0,5.52,2.476,5.52,5.519l0,1.615c0,1.474-0.574,2.86-1.617,3.902c-1.042,1.043-2.429,1.617-3.903,1.617
		c-0.431,0-0.781,0.35-0.781,0.78c0,0.432,0.35,0.78,0.781,0.78h0c1.891,0,3.669-0.736,5.007-2.073
		C29.264,26.588,30,24.811,30,22.919V7.081C30,3.177,26.824,0,22.919,0 M0,21.958L0,21.958v-0.654c0,0,0-0.001,0-0.003V21.958z"/>
</g>
</svg>
